^C:\USERS\SACHA\GOOGLE DRIVE\COURS\IAP\PROJET\SPRINT_5\SPRINT_5\RELEASE\SPRINT_5.OBJ
C:\USERS\SACHA\GOOGLE DRIVE\COURS\IAP\PROJET\SPRINT_5\RELEASE\SPRINT_5.EXE
C:\USERS\SACHA\GOOGLE DRIVE\COURS\IAP\PROJET\SPRINT_5\RELEASE\SPRINT_5.PDB
