^C:\USERS\LENOVO\GOOGLE DRIVE\COURS\IAP\PROJET\SPRINT_5\SPRINT_5\DEBUG\SPRINT_5.OBJ
C:\USERS\LENOVO\GOOGLE DRIVE\COURS\IAP\PROJET\SPRINT_5\DEBUG\SPRINT_5.EXE
C:\USERS\LENOVO\GOOGLE DRIVE\COURS\IAP\PROJET\SPRINT_5\DEBUG\SPRINT_5.ILK
C:\USERS\LENOVO\GOOGLE DRIVE\COURS\IAP\PROJET\SPRINT_5\DEBUG\SPRINT_5.PDB
